Ночь, такси, заметки
Детка, как же легко, незаметно
Ты стала мне чужой
Или так было всегда? Ты притворялась хорошо
Ночь, такси, заметки
Детка, как же легко, незаметно
Ты стала мне чужой
Или так было всегда? Ты притворялась хорошо
